…
As I said just before, data and modelling steps are effectively
overlapped. I can confirm this relation between the two steps with the
choice of monthly observations. Indeed, monthly returns are nearer to
gaussian data than weekly and daily data: they present less extreme
variations (see next section on data viz). As theoretical framework of
H. Markowitz behaves well with gaussian data, this choice is relevant.

To simplify our communication of results, I focus on the 6 first
variables.

``` r
(table_returns_first <- table_returns %>% select(1:6))
```

    ## # A tibble: 232 × 6
    ##       AI.PA   CS.PA   BNP.PA   EN.PA    CA.PA   BN.PA
    ##       <dbl>   <dbl>    <dbl>   <dbl>    <dbl>   <dbl>
    ##  1 -0.0345   0.0152  0.00185  0.0115  0.00524 -0.0301
    ##  2  0.0365  -0.0199  0.0671  -0.0519  0.0130   0.0552
    ##  3  0.0374   0.0385  0.0174  -0.0276  0.0648   0.0412
    ##  4  0.0424   0.0741  0.0892   0.0514 -0.0133   0.0377
    ##  5 -0.0231   0       0.0229   0.0263  0.0347   0.0307
    ##  6  0.0367   0.0345  0.0153   0.0830 -0.0419   0.0370
    ##  7  0.0246  -0.0333 -0.0557  -0.0186 -0.0111   0.0122
    ##  8  0.0527   0.0690  0.0160   0.0848 -0.0269  -0.0120
    ##  9 -0.00667  0.0323  0.0351   0.0662 -0.0379   0.0296
    ## 10 -0.0304   0      -0.0783   0.0164  0.142    0.0127
    ## # ℹ 222 more rows
…
